<?xml version="1.0" encoding="UTF-8"?>
<!DOCTYPE svg PUBLIC "-//W3C//DTD SVG 1.1//EN" "http://www.w3.org/Graphics/SVG/1.1/DTD/svg11.dtd">
<svg version="1.2" width="153.14mm" height="43.76mm" viewBox="1000 5897 15314 4376" preserveAspectRatio="xMidYMid" fill-rule="evenodd" stroke-width="28.222" stroke-linejoin="round" xmlns="http://www.w3.org/2000/svg" xmlns:ooo="http://xml.openoffice.org/svg/export" xmlns:xlink="http://www.w3.org/1999/xlink" xmlns:presentation="http://sun.com/xmlns/staroffice/presentation" xmlns:smil="http://www.w3.org/2001/SMIL20/" xmlns:anim="urn:oasis:names:tc:opendocument:xmlns:animation:1.0" xml:space="preserve">
 <defs class="ClipPathGroup">
  <clipPath id="presentation_clip_path" clipPathUnits="userSpaceOnUse">
   <rect x="1000" y="5897" width="15314" height="4376"/>
  </clipPath>
  <clipPath id="presentation_clip_path_shrink" clipPathUnits="userSpaceOnUse">
   <rect x="1015" y="5901" width="15284" height="4368"/>
  </clipPath>
 </defs>
 <defs>
  <font id="EmbeddedFont_1" horiz-adv-x="2048">
   <font-face font-family="Liberation Mono embedded" units-per-em="2048" font-weight="normal" font-style="normal" ascent="1693" descent="609"/>
   <missing-glyph horiz-adv-x="2048" d="M 0,0 L 2047,0 2047,2047 0,2047 0,0 Z"/>
   <glyph unicode="." horiz-adv-x="266" d="M 496,0 L 496,299 731,299 731,0 496,0 Z"/>
  </font>
 </defs>
 <defs>
  <font id="EmbeddedFont_2" horiz-adv-x="2048">
   <font-face font-family="Liberation Serif embedded" units-per-em="2048" font-weight="normal" font-style="normal" ascent="1799" descent="423"/>
   <missing-glyph horiz-adv-x="2048" d="M 0,0 L 2047,0 2047,2047 0,2047 0,0 Z"/>
   <glyph unicode="2" horiz-adv-x="848" d="M 911,0 L 90,0 90,147 C 157,210 219,266 276,316 332,365 383,412 428,455 473,498 512,539 546,578 579,617 607,658 630,701 652,744 669,790 680,839 691,888 696,944 696,1006 696,1093 676,1159 637,1204 598,1249 533,1272 444,1272 424,1272 404,1271 385,1268 365,1265 346,1261 328,1256 310,1251 293,1245 278,1239 262,1232 248,1226 236,1219 L 201,1055 135,1055 135,1313 C 186,1325 236,1335 285,1344 334,1352 387,1356 444,1356 591,1356 701,1326 775,1265 848,1204 885,1117 885,1006 885,951 878,901 864,854 849,807 829,763 802,720 775,677 743,634 704,593 665,551 621,508 572,463 523,418 469,371 410,321 351,270 288,215 221,154 L 911,154 911,0 Z"/>
   <glyph unicode="1" horiz-adv-x="742" d="M 627,80 L 901,53 901,0 180,0 180,53 455,80 455,1174 184,1077 184,1130 575,1352 627,1352 627,80 Z"/>
   <glyph unicode="0" horiz-adv-x="901" d="M 946,676 C 946,564 937,465 920,378 902,291 875,219 839,160 803,101 757,56 702,26 647,-5 581,-20 506,-20 365,-20 258,39 186,158 114,277 78,449 78,676 78,898 114,1068 186,1186 258,1303 367,1362 514,1362 655,1362 763,1304 836,1188 909,1071 946,901 946,676 Z M 762,676 C 762,772 758,858 750,933 741,1008 727,1072 708,1124 688,1175 662,1215 629,1242 596,1269 555,1282 506,1282 457,1282 416,1269 385,1242 353,1215 328,1175 310,1124 292,1072 280,1008 273,933 266,858 262,772 262,676 262,580 266,494 273,418 280,341 292,277 310,224 328,171 353,130 385,102 416,73 457,59 506,59 555,59 596,73 629,102 662,130 688,171 708,224 727,277 741,341 750,418 758,494 762,580 762,676 Z"/>
  </font>
 </defs>
 <defs>
  <font id="EmbeddedFont_3" horiz-adv-x="2048">
   <font-face font-family="Liberation Serif embedded" units-per-em="2048" font-weight="normal" font-style="italic" ascent="1799" descent="423"/>
   <missing-glyph horiz-adv-x="2048" d="M 0,0 L 2047,0 2047,2047 0,2047 0,0 Z"/>
   <glyph unicode="y" horiz-adv-x="1112" d="M 52,940 L 308,940 453,208 688,614 C 710,653 726,688 737,721 747,753 752,782 752,807 752,832 745,851 731,866 717,881 702,890 686,895 L 694,940 884,940 C 890,935 896,926 902,915 907,904 910,891 910,877 910,856 904,828 893,793 882,758 860,713 827,657 L 431,-9 C 392,-76 355,-136 320,-189 285,-242 250,-288 215,-325 180,-362 143,-391 105,-411 66,-431 24,-441 -22,-441 -39,-441 -54,-441 -68,-441 -80,-441 -92,-440 -104,-438 -114,-437 -125,-435 -136,-433 -147,-430 -158,-428 -171,-424 L -134,-221 -89,-221 -73,-317 C -56,-332 -29,-340 9,-340 38,-340 66,-332 93,-315 120,-298 145,-277 170,-251 194,-224 217,-195 238,-163 259,-131 277,-100 294,-70 L 339,12 156,870 44,895 52,940 Z"/>
   <glyph unicode="x" horiz-adv-x="927" d="M 248,236 C 227,215 209,197 196,182 182,167 171,153 163,142 155,130 150,119 147,110 144,101 142,92 142,84 142,73 146,65 154,59 161,53 171,48 184,45 L 176,0 -9,0 C -13,3 -17,9 -20,17 -23,24 -25,33 -25,43 -25,52 -22,63 -18,74 -12,85 -5,97 6,111 17,125 31,141 48,159 65,177 87,198 112,221 L 385,475 213,870 106,895 114,940 362,940 507,582 631,700 C 674,741 704,773 721,796 738,819 747,839 747,856 747,861 745,866 742,870 738,874 733,878 727,881 721,884 715,886 708,889 701,891 694,893 688,895 L 696,940 873,940 C 879,935 884,930 888,923 892,916 894,907 894,897 894,858 848,794 756,707 L 542,506 734,66 850,45 842,0 586,0 419,400 248,236 Z"/>
   <glyph unicode="n" horiz-adv-x="901" d="M 755,748 C 755,778 747,802 731,821 715,840 690,849 655,849 627,849 598,843 569,830 540,817 511,800 484,779 457,758 431,735 408,709 385,682 365,656 349,630 L 239,0 73,0 226,871 108,896 116,941 394,941 367,749 C 392,782 419,811 447,838 474,865 503,887 533,906 562,925 593,939 624,950 655,960 686,965 718,965 749,965 777,961 802,953 827,945 848,932 866,915 883,898 897,876 907,849 916,822 921,791 921,754 921,746 920,735 919,722 917,708 915,693 912,677 909,661 907,645 904,628 901,611 899,595 896,580 L 808,69 939,45 931,0 630,0 732,582 C 735,597 737,612 740,628 743,644 745,660 748,675 750,690 752,704 753,717 754,730 755,740 755,748 Z"/>
   <glyph unicode="b" horiz-adv-x="927" d="M 305,1352 L 172,1376 180,1421 480,1421 406,980 C 404,967 402,952 399,935 396,918 392,900 389,883 385,865 381,848 378,831 374,814 370,799 367,787 392,812 418,836 445,858 472,879 499,898 526,914 553,930 581,943 608,952 635,961 662,965 687,965 726,965 762,958 796,944 829,929 858,908 883,880 908,852 927,817 941,776 955,734 962,686 962,631 962,574 956,518 943,464 930,409 912,358 889,310 866,261 837,217 804,177 770,136 732,102 690,73 648,44 602,21 553,5 504,-12 451,-20 396,-20 371,-20 346,-18 319,-16 292,-12 264,-8 237,-1 209,6 181,14 154,25 127,36 101,49 76,64 L 305,1352 Z M 248,107 C 267,91 291,79 318,71 345,63 376,59 409,59 464,59 515,75 561,106 606,137 646,179 679,230 712,281 737,339 756,405 774,470 783,537 783,605 783,680 768,738 737,779 706,820 664,840 612,840 591,840 570,837 548,830 526,823 504,813 482,800 460,787 438,773 417,756 395,739 374,721 354,701 L 248,107 Z"/>
   <glyph unicode="Z" horiz-adv-x="1165" d="M 42,94 L 907,1255 707,1255 C 620,1255 547,1253 489,1249 431,1245 389,1240 364,1235 L 296,1024 227,1024 283,1341 1156,1341 1140,1255 267,84 507,84 C 550,84 594,85 637,88 680,90 721,93 758,97 795,100 828,104 856,108 884,111 904,114 917,117 L 1021,373 1091,373 998,0 25,0 42,94 Z"/>
   <glyph unicode="T" horiz-adv-x="1139" d="M 176,0 L 186,53 403,80 610,1253 559,1253 C 516,1253 478,1253 447,1253 416,1253 389,1252 366,1250 343,1248 324,1246 308,1243 292,1241 278,1239 265,1236 L 201,1026 134,1026 190,1341 1260,1341 1204,1026 1136,1026 1146,1235 C 1123,1240 1087,1244 1040,1248 993,1251 930,1253 852,1253 L 803,1253 596,80 805,53 795,0 176,0 Z"/>
  </font>
 </defs>
 <defs>
  <font id="EmbeddedFont_4" horiz-adv-x="2048">
   <font-face font-family="OpenSymbol embedded" units-per-em="2048" font-weight="normal" font-style="normal" ascent="1402" descent="423"/>
   <missing-glyph horiz-adv-x="2048" d="M 0,0 L 2047,0 2047,2047 0,2047 0,0 Z"/>
   <glyph unicode="−" horiz-adv-x="1191" d="M 221,543 L 221,641 1405,641 1405,543 221,543 Z"/>
   <glyph unicode="×" horiz-adv-x="1191" d="M 221,70 L 743,592 221,1114 293,1184 813,662 1337,1184 1405,1114 883,592 1405,70 1337,0 813,522 293,0 221,70 Z"/>
   <glyph unicode="]" horiz-adv-x="398" d="M 428,-403 L 74,-403 74,-330 330,-330 330,1553 74,1553 74,1622 428,1622 428,-403 Z"/>
   <glyph unicode="[" horiz-adv-x="372" d="M 150,-403 L 150,1622 504,1622 504,1552 248,1552 248,-332 504,-332 504,-403 150,-403 Z"/>
   <glyph unicode="+" horiz-adv-x="980" d="M 512,115 L 512,516 115,516 115,684 512,684 512,1083 682,1083 682,684 1081,684 1081,516 682,516 682,115 512,115 Z"/>
  </font>
 </defs>
 <defs class="TextShapeIndex">
  <g ooo:slide="id1" ooo:id-list="id3 id4 id5 id6 id7 id8 id9 id10 id11 id12 id13 id14 id15 id16 id17 id18 id19 id20 id21 id22 id23 id24 id25 id26 id27 id28 id29 id30 id31 id32 id33 id34 id35 id36 id37 id38 id39 id40 id41 id42 id43 id44 id45 id46 id47 id48 id49 id50 id51 id52"/>
 </defs>
 <defs class="EmbeddedBulletChars">
  <g id="bullet-char-template(57356)" transform="scale(0.00048828125,-0.00048828125)">
   <path d="M 580,1141 L 1163,571 580,0 -4,571 580,1141 Z"/>
  </g>
  <g id="bullet-char-template(57354)" transform="scale(0.00048828125,-0.00048828125)">
   <path d="M 8,1128 L 1137,1128 1137,0 8,0 8,1128 Z"/>
  </g>
  <g id="bullet-char-template(10146)" transform="scale(0.00048828125,-0.00048828125)">
   <path d="M 174,0 L 602,739 174,1481 1456,739 174,0 Z M 1358,739 L 309,1346 659,739 1358,739 Z"/>
  </g>
  <g id="bullet-char-template(10132)" transform="scale(0.00048828125,-0.00048828125)">
   <path d="M 2015,739 L 1276,0 717,0 1260,543 174,543 174,936 1260,936 717,1481 1274,1481 2015,739 Z"/>
  </g>
  <g id="bullet-char-template(10007)" transform="scale(0.00048828125,-0.00048828125)">
   <path d="M 0,-2 C -7,14 -16,27 -25,37 L 356,567 C 262,823 215,952 215,954 215,979 228,992 255,992 264,992 276,990 289,987 310,991 331,999 354,1012 L 381,999 492,748 772,1049 836,1024 860,1049 C 881,1039 901,1025 922,1006 886,937 835,863 770,784 769,783 710,716 594,584 L 774,223 C 774,196 753,168 711,139 L 727,119 C 717,90 699,76 672,76 641,76 570,178 457,381 L 164,-76 C 142,-110 111,-127 72,-127 30,-127 9,-110 8,-76 1,-67 -2,-52 -2,-32 -2,-23 -1,-13 0,-2 Z"/>
  </g>
  <g id="bullet-char-template(10004)" transform="scale(0.00048828125,-0.00048828125)">
   <path d="M 285,-33 C 182,-33 111,30 74,156 52,228 41,333 41,471 41,549 55,616 82,672 116,743 169,778 240,778 293,778 328,747 346,684 L 369,508 C 377,444 397,411 428,410 L 1163,1116 C 1174,1127 1196,1133 1229,1133 1271,1133 1292,1118 1292,1087 L 1292,965 C 1292,929 1282,901 1262,881 L 442,47 C 390,-6 338,-33 285,-33 Z"/>
  </g>
  <g id="bullet-char-template(9679)" transform="scale(0.00048828125,-0.00048828125)">
   <path d="M 813,0 C 632,0 489,54 383,161 276,268 223,411 223,592 223,773 276,916 383,1023 489,1130 632,1184 813,1184 992,1184 1136,1130 1245,1023 1353,916 1407,772 1407,592 1407,412 1353,268 1245,161 1136,54 992,0 813,0 Z"/>
  </g>
  <g id="bullet-char-template(8226)" transform="scale(0.00048828125,-0.00048828125)">
   <path d="M 346,457 C 273,457 209,483 155,535 101,586 74,649 74,723 74,796 101,859 155,911 209,963 273,989 346,989 419,989 480,963 531,910 582,859 608,796 608,723 608,648 583,586 532,535 482,483 420,457 346,457 Z"/>
  </g>
  <g id="bullet-char-template(8211)" transform="scale(0.00048828125,-0.00048828125)">
   <path d="M -4,459 L 1135,459 1135,606 -4,606 -4,459 Z"/>
  </g>
  <g id="bullet-char-template(61548)" transform="scale(0.00048828125,-0.00048828125)">
   <path d="M 173,740 C 173,903 231,1043 346,1159 462,1274 601,1332 765,1332 928,1332 1067,1274 1183,1159 1299,1043 1357,903 1357,740 1357,577 1299,437 1183,322 1067,206 928,148 765,148 601,148 462,206 346,322 231,437 173,577 173,740 Z"/>
  </g>
 </defs>
 <defs class="TextEmbeddedBitmaps"/>
 <g class="SlideGroup">
  <g>
   <g id="container-id1">
    <g id="id1" class="Slide" clip-path="url(#presentation_clip_path)">
     <g class="Page">
      <g class="com.sun.star.drawing.LineShape">
       <g id="id3">
        <rect class="BoundingBox" stroke="none" fill="none" x="10969" y="6212" width="1019" height="353"/>
        <path fill="none" stroke="rgb(0,0,0)" stroke-width="35" stroke-linejoin="round" d="M 10987,6388 L 11482,6388"/>
        <path fill="rgb(0,0,0)" stroke="none" d="M 11987,6388 L 11459,6212 11459,6564 11987,6388 Z"/>
       </g>
      </g>
      <g class="OLE2">
       <g id="id4">
        <rect class="BoundingBox" stroke="none" fill="none" x="1000" y="6127" width="992" height="481"/>
        <defs>
         <clipPath id="clip_path_1" clipPathUnits="userSpaceOnUse">
          <path d="M 1005,6138 L 1984,6138 1984,6615 1005,6615 1005,6138 Z"/>
         </clipPath>
        </defs>
        <g clip-path="url(#clip_path_1)">
         <text class="TextShape"><tspan class="TextParagraph" font-family="Liberation Serif, serif" font-size="422px" font-style="italic" font-weight="400"><tspan class="TextPosition" x="1132" y="6497"><tspan fill="rgb(0,0,0)" stroke="none">x</tspan></tspan></tspan></text>
         <text class="TextShape"><tspan class="TextParagraph" font-family="OpenSymbol" font-size="422px" font-weight="400"><tspan class="TextPosition" x="1370" y="6497"><tspan fill="rgb(0,0,0)" stroke="none">[</tspan></tspan></tspan></text>
         <text class="TextShape"><tspan class="TextParagraph" font-family="Liberation Serif, serif" font-size="422px" font-style="italic" font-weight="400"><tspan class="TextPosition" x="1529" y="6497"><tspan fill="rgb(0,0,0)" stroke="none">n</tspan></tspan></tspan></text>
         <text class="TextShape"><tspan class="TextParagraph" font-family="OpenSymbol" font-size="422px" font-weight="400"><tspan class="TextPosition" x="1767" y="6497"><tspan fill="rgb(0,0,0)" stroke="none">]</tspan></tspan></tspan></text>
        </g>
       </g>
      </g>
      <g class="com.sun.star.drawing.LineShape">
       <g id="id5">
        <rect class="BoundingBox" stroke="none" fill="none" x="1937" y="6245" width="2325" height="353"/>
        <path fill="none" stroke="rgb(0,0,0)" stroke-width="35" stroke-linejoin="round" d="M 1955,6421 L 3756,6421"/>
        <path fill="rgb(0,0,0)" stroke="none" d="M 4261,6421 L 3733,6245 3733,6597 4261,6421 Z"/>
       </g>
      </g>
      <g class="com.sun.star.drawing.CustomShape">
       <g id="id6">
        <rect class="BoundingBox" stroke="none" fill="none" x="5640" y="9432" width="842" height="842"/>
        <path fill="none" stroke="rgb(0,0,0)" stroke-width="40" stroke-linejoin="round" d="M 6060,9452 C 6287,9452 6460,9625 6460,9852 6460,10079 6287,10252 6060,10252 5833,10252 5660,10079 5660,9852 5660,9625 5833,9452 6060,9452 Z"/>
       </g>
      </g>
      <g class="OLE2">
       <g id="id7">
        <rect class="BoundingBox" stroke="none" fill="none" x="5843" y="9763" width="491" height="234"/>
        <defs>
         <clipPath id="clip_path_2" clipPathUnits="userSpaceOnUse">
          <path d="M 5847,9763 L 6324,9763 6324,10001 5847,10001 5847,9763 Z"/>
         </clipPath>
        </defs>
        <g clip-path="url(#clip_path_2)">
         <text class="TextShape"><tspan class="TextParagraph" font-family="OpenSymbol" font-size="422px" font-weight="400"><tspan class="TextPosition" x="5949" y="10001"><tspan fill="rgb(0,0,0)" stroke="none">+</tspan></tspan></tspan></text>
        </g>
       </g>
      </g>
      <g class="com.sun.star.drawing.LineShape">
       <g id="id8">
        <rect class="BoundingBox" stroke="none" fill="none" x="3156" y="6311" width="354" height="1102"/>
        <path fill="none" stroke="rgb(0,0,0)" stroke-width="35" stroke-linejoin="round" d="M 3331,6547 L 3332,6907"/>
        <path fill="rgb(0,0,0)" stroke="none" d="M 3308,6561 L 3285,6555 3262,6544 3242,6528 3225,6507 3214,6484 3207,6462 3204,6438 3207,6415 3214,6392 3225,6369 3241,6349 3262,6333 3284,6322 3307,6314 3331,6312 3353,6314 3377,6321 3399,6332 3419,6348 3435,6368 3447,6391 3453,6414 3456,6437 3454,6461 3447,6483 3436,6506 3420,6527 3399,6543 3378,6554 3354,6561 3331,6564 3308,6561 Z"/>
        <path fill="rgb(0,0,0)" stroke="none" d="M 3334,7412 L 3508,6883 3156,6885 3334,7412 Z"/>
       </g>
      </g>
      <g class="com.sun.star.drawing.TextShape">
       <g id="id9">
        <rect class="BoundingBox" stroke="none" fill="none" x="9933" y="5983" width="1202" height="688"/>
        <text class="TextShape"><tspan class="TextParagraph" font-family="Liberation Mono, monospace" font-size="388px" font-weight="400"><tspan class="TextPosition" x="10183" y="6430"><tspan fill="rgb(0,0,0)" stroke="none">...</tspan></tspan></tspan></text>
       </g>
      </g>
      <g class="com.sun.star.drawing.LineShape">
       <g id="id10">
        <rect class="BoundingBox" stroke="none" fill="none" x="1950" y="7697" width="919" height="353"/>
        <path fill="none" stroke="rgb(0,0,0)" stroke-width="35" stroke-linejoin="round" d="M 1968,7873 L 2363,7873"/>
        <path fill="rgb(0,0,0)" stroke="none" d="M 2868,7873 L 2340,7697 2340,8049 2868,7873 Z"/>
       </g>
      </g>
      <g class="OLE2">
       <g id="id11">
        <rect class="BoundingBox" stroke="none" fill="none" x="15288" y="9627" width="1027" height="481"/>
        <defs>
         <clipPath id="clip_path_3" clipPathUnits="userSpaceOnUse">
          <path d="M 15293,9631 L 16325,9631 16325,10107 15293,10107 15293,9631 Z"/>
         </clipPath>
        </defs>
        <g clip-path="url(#clip_path_3)">
         <text class="TextShape"><tspan class="TextParagraph" font-family="Liberation Serif, serif" font-size="422px" font-style="italic" font-weight="400"><tspan class="TextPosition" x="15447" y="9997"><tspan fill="rgb(0,0,0)" stroke="none">y</tspan></tspan></tspan></text>
         <text class="TextShape"><tspan class="TextParagraph" font-family="OpenSymbol" font-size="422px" font-weight="400"><tspan class="TextPosition" x="15685" y="9997"><tspan fill="rgb(0,0,0)" stroke="none">[</tspan></tspan></tspan></text>
         <text class="TextShape"><tspan class="TextParagraph" font-family="Liberation Serif, serif" font-size="422px" font-style="italic" font-weight="400"><tspan class="TextPosition" x="15844" y="9997"><tspan fill="rgb(0,0,0)" stroke="none">n</tspan></tspan></tspan></text>
         <text class="TextShape"><tspan class="TextParagraph" font-family="OpenSymbol" font-size="422px" font-weight="400"><tspan class="TextPosition" x="16108" y="9997"><tspan fill="rgb(0,0,0)" stroke="none">]</tspan></tspan></tspan></text>
        </g>
       </g>
      </g>
      <g class="com.sun.star.drawing.CustomShape">
       <g id="id12">
        <rect class="BoundingBox" stroke="none" fill="none" x="2912" y="7442" width="842" height="842"/>
        <path fill="none" stroke="rgb(0,0,0)" stroke-width="40" stroke-linejoin="round" d="M 3332,7462 C 3559,7462 3732,7635 3732,7862 3732,8089 3559,8262 3332,8262 3105,8262 2932,8089 2932,7862 2932,7635 3105,7462 3332,7462 Z"/>
       </g>
      </g>
      <g class="OLE2">
       <g id="id13">
        <rect class="BoundingBox" stroke="none" fill="none" x="3032" y="7629" width="601" height="467"/>
        <defs>
         <clipPath id="clip_path_4" clipPathUnits="userSpaceOnUse">
          <path d="M 3043,7620 L 3625,7620 3625,8096 3043,8096 3043,7620 Z"/>
         </clipPath>
        </defs>
        <g clip-path="url(#clip_path_4)">
         <text class="TextShape"><tspan class="TextParagraph" font-family="OpenSymbol" font-size="422px" font-weight="400"><tspan class="TextPosition" x="3191" y="7999"><tspan fill="rgb(0,0,0)" stroke="none">×</tspan></tspan></tspan></text>
        </g>
       </g>
      </g>
      <g class="OLE2">
       <g id="id14">
        <rect class="BoundingBox" stroke="none" fill="none" x="1427" y="7551" width="565" height="527"/>
        <defs>
         <clipPath id="clip_path_5" clipPathUnits="userSpaceOnUse">
          <path d="M 1429,7541 L 1984,7541 1984,8070 1429,8070 1429,7541 Z"/>
         </clipPath>
        </defs>
        <g clip-path="url(#clip_path_5)">
         <text class="TextShape"><tspan class="TextParagraph" font-family="Liberation Serif, serif" font-size="422px" font-style="italic" font-weight="400"><tspan class="TextPosition" x="1533" y="7921"><tspan fill="rgb(0,0,0)" stroke="none">b</tspan></tspan></tspan></text>
         <text class="TextShape"><tspan class="TextParagraph" font-family="Liberation Serif, serif" font-size="253px" font-weight="400"><tspan class="TextPosition" x="1771" y="8027"><tspan fill="rgb(0,0,0)" stroke="none">0</tspan></tspan></tspan></text>
        </g>
       </g>
      </g>
      <g class="com.sun.star.drawing.CustomShape">
       <g id="id15">
        <rect class="BoundingBox" stroke="none" fill="none" x="4282" y="5897" width="1041" height="1041"/>
        <path fill="none" stroke="rgb(0,0,0)" stroke-width="40" stroke-linejoin="round" d="M 4802,6917 L 4302,6917 4302,5917 5302,5917 5302,6917 4802,6917 Z"/>
       </g>
      </g>
      <g class="OLE2">
       <g id="id16">
        <rect class="BoundingBox" stroke="none" fill="none" x="4396" y="6155" width="813" height="525"/>
        <defs>
         <clipPath id="clip_path_6" clipPathUnits="userSpaceOnUse">
          <path d="M 4392,6165 L 5212,6165 5212,6668 4392,6668 4392,6165 Z"/>
         </clipPath>
        </defs>
        <g clip-path="url(#clip_path_6)">
         <text class="TextShape"><tspan class="TextParagraph" font-family="Liberation Serif, serif" font-size="422px" font-style="italic" font-weight="400"><tspan class="TextPosition" x="4503" y="6578"><tspan fill="rgb(0,0,0)" stroke="none">Z</tspan></tspan></tspan></text>
         <text class="TextShape"><tspan class="TextParagraph" font-family="OpenSymbol" font-size="253px" font-weight="400"><tspan class="TextPosition" x="4770" y="6393"><tspan fill="rgb(0,0,0)" stroke="none">−</tspan></tspan></tspan></text>
         <text class="TextShape"><tspan class="TextParagraph" font-family="Liberation Serif, serif" font-size="253px" font-weight="400"><tspan class="TextPosition" x="4984" y="6393"><tspan fill="rgb(0,0,0)" stroke="none">1</tspan></tspan></tspan></text>
        </g>
       </g>
      </g>
      <g class="com.sun.star.drawing.LineShape">
       <g id="id17">
        <rect class="BoundingBox" stroke="none" fill="none" x="5361" y="6205" width="1819" height="353"/>
        <path fill="none" stroke="rgb(0,0,0)" stroke-width="35" stroke-linejoin="round" d="M 5379,6381 L 6674,6381"/>
        <path fill="rgb(0,0,0)" stroke="none" d="M 7179,6381 L 6651,6205 6651,6557 7179,6381 Z"/>
       </g>
      </g>
      <g class="com.sun.star.drawing.LineShape">
       <g id="id18">
        <rect class="BoundingBox" stroke="none" fill="none" x="5884" y="6270" width="354" height="1102"/>
        <path fill="none" stroke="rgb(0,0,0)" stroke-width="35" stroke-linejoin="round" d="M 6059,6506 L 6060,6866"/>
        <path fill="rgb(0,0,0)" stroke="none" d="M 6036,6520 L 6013,6514 5990,6503 5970,6487 5953,6466 5942,6443 5935,6421 5932,6397 5935,6374 5942,6351 5953,6328 5969,6308 5990,6292 6012,6281 6035,6273 6059,6271 6081,6273 6105,6280 6127,6291 6147,6307 6163,6327 6175,6350 6181,6373 6184,6396 6182,6420 6175,6442 6164,6465 6148,6486 6127,6502 6106,6513 6082,6520 6059,6523 6036,6520 Z"/>
        <path fill="rgb(0,0,0)" stroke="none" d="M 6062,7371 L 6236,6842 5884,6844 6062,7371 Z"/>
       </g>
      </g>
      <g class="com.sun.star.drawing.LineShape">
       <g id="id19">
        <rect class="BoundingBox" stroke="none" fill="none" x="4678" y="7656" width="919" height="353"/>
        <path fill="none" stroke="rgb(0,0,0)" stroke-width="35" stroke-linejoin="round" d="M 4696,7832 L 5091,7832"/>
        <path fill="rgb(0,0,0)" stroke="none" d="M 5596,7832 L 5068,7656 5068,8008 5596,7832 Z"/>
       </g>
      </g>
      <g class="com.sun.star.drawing.CustomShape">
       <g id="id20">
        <rect class="BoundingBox" stroke="none" fill="none" x="5640" y="7401" width="842" height="842"/>
        <path fill="none" stroke="rgb(0,0,0)" stroke-width="40" stroke-linejoin="round" d="M 6060,7421 C 6287,7421 6460,7594 6460,7821 6460,8048 6287,8221 6060,8221 5833,8221 5660,8048 5660,7821 5660,7594 5833,7421 6060,7421 Z"/>
       </g>
      </g>
      <g class="OLE2">
       <g id="id21">
        <rect class="BoundingBox" stroke="none" fill="none" x="5760" y="7588" width="601" height="467"/>
        <defs>
         <clipPath id="clip_path_7" clipPathUnits="userSpaceOnUse">
          <path d="M 5768,7594 L 6350,7594 6350,8043 5768,8043 5768,7594 Z"/>
         </clipPath>
        </defs>
        <g clip-path="url(#clip_path_7)">
         <text class="TextShape"><tspan class="TextParagraph" font-family="OpenSymbol" font-size="422px" font-weight="400"><tspan class="TextPosition" x="5919" y="7958"><tspan fill="rgb(0,0,0)" stroke="none">×</tspan></tspan></tspan></text>
        </g>
       </g>
      </g>
      <g class="OLE2">
       <g id="id22">
        <rect class="BoundingBox" stroke="none" fill="none" x="4155" y="7510" width="556" height="527"/>
        <defs>
         <clipPath id="clip_path_8" clipPathUnits="userSpaceOnUse">
          <path d="M 4154,7514 L 4710,7514 4710,8043 4154,8043 4154,7514 Z"/>
         </clipPath>
        </defs>
        <g clip-path="url(#clip_path_8)">
         <text class="TextShape"><tspan class="TextParagraph" font-family="Liberation Serif, serif" font-size="422px" font-style="italic" font-weight="400"><tspan class="TextPosition" x="4261" y="7880"><tspan fill="rgb(0,0,0)" stroke="none">b</tspan></tspan></tspan></text>
         <text class="TextShape"><tspan class="TextParagraph" font-family="Liberation Serif, serif" font-size="253px" font-weight="400"><tspan class="TextPosition" x="4473" y="7986"><tspan fill="rgb(0,0,0)" stroke="none">1</tspan></tspan></tspan></text>
        </g>
       </g>
      </g>
      <g class="com.sun.star.drawing.CustomShape">
       <g id="id23">
        <rect class="BoundingBox" stroke="none" fill="none" x="7233" y="5897" width="1041" height="1041"/>
        <path fill="none" stroke="rgb(0,0,0)" stroke-width="40" stroke-linejoin="round" d="M 7753,6917 L 7253,6917 7253,5917 8253,5917 8253,6917 7753,6917 Z"/>
       </g>
      </g>
      <g class="OLE2">
       <g id="id24">
        <rect class="BoundingBox" stroke="none" fill="none" x="7347" y="6155" width="813" height="525"/>
        <defs>
         <clipPath id="clip_path_9" clipPathUnits="userSpaceOnUse">
          <path d="M 7355,6165 L 8149,6165 8149,6668 7355,6668 7355,6165 Z"/>
         </clipPath>
        </defs>
        <g clip-path="url(#clip_path_9)">
         <text class="TextShape"><tspan class="TextParagraph" font-family="Liberation Serif, serif" font-size="422px" font-style="italic" font-weight="400"><tspan class="TextPosition" x="7454" y="6578"><tspan fill="rgb(0,0,0)" stroke="none">Z</tspan></tspan></tspan></text>
         <text class="TextShape"><tspan class="TextParagraph" font-family="OpenSymbol" font-size="253px" font-weight="400"><tspan class="TextPosition" x="7721" y="6393"><tspan fill="rgb(0,0,0)" stroke="none">−</tspan></tspan></tspan></text>
         <text class="TextShape"><tspan class="TextParagraph" font-family="Liberation Serif, serif" font-size="253px" font-weight="400"><tspan class="TextPosition" x="7935" y="6393"><tspan fill="rgb(0,0,0)" stroke="none">1</tspan></tspan></tspan></text>
        </g>
       </g>
      </g>
      <g class="com.sun.star.drawing.LineShape">
       <g id="id25">
        <rect class="BoundingBox" stroke="none" fill="none" x="8312" y="6205" width="1819" height="353"/>
        <path fill="none" stroke="rgb(0,0,0)" stroke-width="35" stroke-linejoin="round" d="M 8330,6381 L 9625,6381"/>
        <path fill="rgb(0,0,0)" stroke="none" d="M 10130,6381 L 9602,6205 9602,6557 10130,6381 Z"/>
       </g>
      </g>
      <g class="com.sun.star.drawing.LineShape">
       <g id="id26">
        <rect class="BoundingBox" stroke="none" fill="none" x="8835" y="6270" width="354" height="1102"/>
        <path fill="none" stroke="rgb(0,0,0)" stroke-width="35" stroke-linejoin="round" d="M 9010,6506 L 9011,6866"/>
        <path fill="rgb(0,0,0)" stroke="none" d="M 8987,6520 L 8964,6514 8941,6503 8921,6487 8904,6466 8893,6443 8886,6421 8883,6397 8886,6374 8893,6351 8904,6328 8920,6308 8941,6292 8963,6281 8986,6273 9010,6271 9032,6273 9056,6280 9078,6291 9098,6307 9114,6327 9126,6350 9132,6373 9135,6396 9133,6420 9126,6442 9115,6465 9099,6486 9078,6502 9057,6513 9033,6520 9010,6523 8987,6520 Z"/>
        <path fill="rgb(0,0,0)" stroke="none" d="M 9013,7371 L 9187,6842 8835,6844 9013,7371 Z"/>
       </g>
      </g>
      <g class="com.sun.star.drawing.LineShape">
       <g id="id27">
        <rect class="BoundingBox" stroke="none" fill="none" x="7629" y="7656" width="919" height="353"/>
        <path fill="none" stroke="rgb(0,0,0)" stroke-width="35" stroke-linejoin="round" d="M 7647,7832 L 8042,7832"/>
        <path fill="rgb(0,0,0)" stroke="none" d="M 8547,7832 L 8019,7656 8019,8008 8547,7832 Z"/>
       </g>
      </g>
      <g class="com.sun.star.drawing.CustomShape">
       <g id="id28">
        <rect class="BoundingBox" stroke="none" fill="none" x="8591" y="7401" width="842" height="842"/>
        <path fill="none" stroke="rgb(0,0,0)" stroke-width="40" stroke-linejoin="round" d="M 9011,7421 C 9238,7421 9411,7594 9411,7821 9411,8048 9238,8221 9011,8221 8784,8221 8611,8048 8611,7821 8611,7594 8784,7421 9011,7421 Z"/>
       </g>
      </g>
      <g class="OLE2">
       <g id="id29">
        <rect class="BoundingBox" stroke="none" fill="none" x="8711" y="7588" width="601" height="467"/>
        <defs>
         <clipPath id="clip_path_10" clipPathUnits="userSpaceOnUse">
          <path d="M 8705,7594 L 9313,7594 9313,8043 8705,8043 8705,7594 Z"/>
         </clipPath>
        </defs>
        <g clip-path="url(#clip_path_10)">
         <text class="TextShape"><tspan class="TextParagraph" font-family="OpenSymbol" font-size="422px" font-weight="400"><tspan class="TextPosition" x="8870" y="7958"><tspan fill="rgb(0,0,0)" stroke="none">×</tspan></tspan></tspan></text>
        </g>
       </g>
      </g>
      <g class="OLE2">
       <g id="id30">
        <rect class="BoundingBox" stroke="none" fill="none" x="7106" y="7510" width="560" height="527"/>
        <defs>
         <clipPath id="clip_path_11" clipPathUnits="userSpaceOnUse">
          <path d="M 7117,7514 L 7673,7514 7673,8043 7117,8043 7117,7514 Z"/>
         </clipPath>
        </defs>
        <g clip-path="url(#clip_path_11)">
         <text class="TextShape"><tspan class="TextParagraph" font-family="Liberation Serif, serif" font-size="422px" font-style="italic" font-weight="400"><tspan class="TextPosition" x="7212" y="7880"><tspan fill="rgb(0,0,0)" stroke="none">b</tspan></tspan></tspan></text>
         <text class="TextShape"><tspan class="TextParagraph" font-family="Liberation Serif, serif" font-size="253px" font-weight="400"><tspan class="TextPosition" x="7450" y="7986"><tspan fill="rgb(0,0,0)" stroke="none">2</tspan></tspan></tspan></text>
        </g>
       </g>
      </g>
      <g class="com.sun.star.drawing.CustomShape">
       <g id="id31">
        <rect class="BoundingBox" stroke="none" fill="none" x="12002" y="5897" width="1041" height="1041"/>
        <path fill="none" stroke="rgb(0,0,0)" stroke-width="40" stroke-linejoin="round" d="M 12522,6917 L 12022,6917 12022,5917 13022,5917 13022,6917 12522,6917 Z"/>
       </g>
      </g>
      <g class="OLE2">
       <g id="id32">
        <rect class="BoundingBox" stroke="none" fill="none" x="12116" y="6155" width="813" height="525"/>
        <defs>
         <clipPath id="clip_path_12" clipPathUnits="userSpaceOnUse">
          <path d="M 12118,6165 L 12938,6165 12938,6668 12118,6668 12118,6165 Z"/>
         </clipPath>
        </defs>
        <g clip-path="url(#clip_path_12)">
         <text class="TextShape"><tspan class="TextParagraph" font-family="Liberation Serif, serif" font-size="422px" font-style="italic" font-weight="400"><tspan class="TextPosition" x="12223" y="6578"><tspan fill="rgb(0,0,0)" stroke="none">Z</tspan></tspan></tspan></text>
         <text class="TextShape"><tspan class="TextParagraph" font-family="OpenSymbol" font-size="253px" font-weight="400"><tspan class="TextPosition" x="12490" y="6393"><tspan fill="rgb(0,0,0)" stroke="none">−</tspan></tspan></tspan></text>
         <text class="TextShape"><tspan class="TextParagraph" font-family="Liberation Serif, serif" font-size="253px" font-weight="400"><tspan class="TextPosition" x="12704" y="6393"><tspan fill="rgb(0,0,0)" stroke="none">1</tspan></tspan></tspan></text>
        </g>
       </g>
      </g>
      <g class="com.sun.star.drawing.LineShape">
       <g id="id33">
        <rect class="BoundingBox" stroke="none" fill="none" x="13081" y="6363" width="718" height="37"/>
        <path fill="none" stroke="rgb(0,0,0)" stroke-width="35" stroke-linejoin="round" d="M 13099,6381 L 13780,6381"/>
       </g>
      </g>
      <g class="com.sun.star.drawing.LineShape">
       <g id="id34">
        <rect class="BoundingBox" stroke="none" fill="none" x="13604" y="6356" width="354" height="1016"/>
        <path fill="none" stroke="rgb(0,0,0)" stroke-width="35" stroke-linejoin="round" d="M 13779,6374 L 13780,6866"/>
        <path fill="rgb(0,0,0)" stroke="none" d="M 13782,7371 L 13956,6842 13604,6844 13782,7371 Z"/>
       </g>
      </g>
      <g class="com.sun.star.drawing.LineShape">
       <g id="id35">
        <rect class="BoundingBox" stroke="none" fill="none" x="12398" y="7656" width="919" height="353"/>
        <path fill="none" stroke="rgb(0,0,0)" stroke-width="35" stroke-linejoin="round" d="M 12416,7832 L 12811,7832"/>
        <path fill="rgb(0,0,0)" stroke="none" d="M 13316,7832 L 12788,7656 12788,8008 13316,7832 Z"/>
       </g>
      </g>
      <g class="com.sun.star.drawing.CustomShape">
       <g id="id36">
        <rect class="BoundingBox" stroke="none" fill="none" x="13360" y="7401" width="842" height="842"/>
        <path fill="none" stroke="rgb(0,0,0)" stroke-width="40" stroke-linejoin="round" d="M 13780,7421 C 14007,7421 14180,7594 14180,7821 14180,8048 14007,8221 13780,8221 13553,8221 13380,8048 13380,7821 13380,7594 13553,7421 13780,7421 Z"/>
       </g>
      </g>
      <g class="OLE2">
       <g id="id37">
        <rect class="BoundingBox" stroke="none" fill="none" x="13480" y="7588" width="601" height="467"/>
        <defs>
         <clipPath id="clip_path_13" clipPathUnits="userSpaceOnUse">
          <path d="M 13467,7594 L 14076,7594 14076,8043 13467,8043 13467,7594 Z"/>
         </clipPath>
        </defs>
        <g clip-path="url(#clip_path_13)">
         <text class="TextShape"><tspan class="TextParagraph" font-family="OpenSymbol" font-size="422px" font-weight="400"><tspan class="TextPosition" x="13639" y="7958"><tspan fill="rgb(0,0,0)" stroke="none">×</tspan></tspan></tspan></text>
        </g>
       </g>
      </g>
      <g class="OLE2">
       <g id="id38">
        <rect class="BoundingBox" stroke="none" fill="none" x="11475" y="7510" width="944" height="527"/>
        <defs>
         <clipPath id="clip_path_14" clipPathUnits="userSpaceOnUse">
          <path d="M 11483,7514 L 12409,7514 12409,8043 11483,8043 11483,7514 Z"/>
         </clipPath>
        </defs>
        <g clip-path="url(#clip_path_14)">
         <text class="TextShape"><tspan class="TextParagraph" font-family="Liberation Serif, serif" font-size="422px" font-style="italic" font-weight="400"><tspan class="TextPosition" x="11581" y="7880"><tspan fill="rgb(0,0,0)" stroke="none">b</tspan></tspan></tspan></text>
         <text class="TextShape"><tspan class="TextParagraph" font-family="Liberation Serif, serif" font-size="253px" font-style="italic" font-weight="400"><tspan class="TextPosition" x="11793" y="7986"><tspan fill="rgb(0,0,0)" stroke="none">T</tspan></tspan></tspan></text>
         <text class="TextShape"><tspan class="TextParagraph" font-family="OpenSymbol" font-size="253px" font-weight="400"><tspan class="TextPosition" x="11978" y="7986"><tspan fill="rgb(0,0,0)" stroke="none">−</tspan></tspan></tspan></text>
         <text class="TextShape"><tspan class="TextParagraph" font-family="Liberation Serif, serif" font-size="253px" font-weight="400"><tspan class="TextPosition" x="12189" y="7986"><tspan fill="rgb(0,0,0)" stroke="none">1</tspan></tspan></tspan></text>
        </g>
       </g>
      </g>
      <g class="com.sun.star.drawing.CustomShape">
       <g id="id39">
        <rect class="BoundingBox" stroke="none" fill="none" x="8591" y="9432" width="842" height="842"/>
        <path fill="none" stroke="rgb(0,0,0)" stroke-width="40" stroke-linejoin="round" d="M 9011,9452 C 9238,9452 9411,9625 9411,9852 9411,10079 9238,10252 9011,10252 8784,10252 8611,10079 8611,9852 8611,9625 8784,9452 9011,9452 Z"/>
       </g>
      </g>
      <g class="OLE2">
       <g id="id40">
        <rect class="BoundingBox" stroke="none" fill="none" x="8794" y="9763" width="491" height="234"/>
        <defs>
         <clipPath id="clip_path_15" clipPathUnits="userSpaceOnUse">
          <path d="M 8784,9763 L 9287,9763 9287,10001 8784,10001 8784,9763 Z"/>
         </clipPath>
        </defs>
        <g clip-path="url(#clip_path_15)">
         <text class="TextShape"><tspan class="TextParagraph" font-family="OpenSymbol" font-size="422px" font-weight="400"><tspan class="TextPosition" x="8900" y="10001"><tspan fill="rgb(0,0,0)" stroke="none">+</tspan></tspan></tspan></text>
        </g>
       </g>
      </g>
      <g class="com.sun.star.drawing.CustomShape">
       <g id="id41">
        <rect class="BoundingBox" stroke="none" fill="none" x="13360" y="9432" width="842" height="842"/>
        <path fill="none" stroke="rgb(0,0,0)" stroke-width="40" stroke-linejoin="round" d="M 13780,9452 C 14007,9452 14180,9625 14180,9852 14180,10079 14007,10252 13780,10252 13553,10252 13380,10079 13380,9852 13380,9625 13553,9452 13780,9452 Z"/>
       </g>
      </g>
      <g class="OLE2">
       <g id="id42">
        <rect class="BoundingBox" stroke="none" fill="none" x="13563" y="9763" width="491" height="234"/>
        <defs>
         <clipPath id="clip_path_16" clipPathUnits="userSpaceOnUse">
          <path d="M 13573,9763 L 14049,9763 14049,10001 13573,10001 13573,9763 Z"/>
         </clipPath>
        </defs>
        <g clip-path="url(#clip_path_16)">
         <text class="TextShape"><tspan class="TextParagraph" font-family="OpenSymbol" font-size="422px" font-weight="400"><tspan class="TextPosition" x="13669" y="10001"><tspan fill="rgb(0,0,0)" stroke="none">+</tspan></tspan></tspan></text>
        </g>
       </g>
      </g>
      <g class="com.sun.star.drawing.LineShape">
       <g id="id43">
        <rect class="BoundingBox" stroke="none" fill="none" x="5884" y="8273" width="354" height="1119"/>
        <path fill="none" stroke="rgb(0,0,0)" stroke-width="35" stroke-linejoin="round" d="M 6058,8291 L 6060,8886"/>
        <path fill="rgb(0,0,0)" stroke="none" d="M 6062,9391 L 6236,8862 5884,8864 6062,9391 Z"/>
       </g>
      </g>
      <g class="com.sun.star.drawing.LineShape">
       <g id="id44">
        <rect class="BoundingBox" stroke="none" fill="none" x="8843" y="8273" width="354" height="1119"/>
        <path fill="none" stroke="rgb(0,0,0)" stroke-width="35" stroke-linejoin="round" d="M 9017,8291 L 9019,8886"/>
        <path fill="rgb(0,0,0)" stroke="none" d="M 9021,9391 L 9195,8862 8843,8864 9021,9391 Z"/>
       </g>
      </g>
      <g class="com.sun.star.drawing.LineShape">
       <g id="id45">
        <rect class="BoundingBox" stroke="none" fill="none" x="13605" y="8273" width="354" height="1119"/>
        <path fill="none" stroke="rgb(0,0,0)" stroke-width="35" stroke-linejoin="round" d="M 13779,8291 L 13781,8886"/>
        <path fill="rgb(0,0,0)" stroke="none" d="M 13783,9391 L 13957,8862 13605,8864 13783,9391 Z"/>
       </g>
      </g>
      <g class="com.sun.star.drawing.LineShape">
       <g id="id46">
        <rect class="BoundingBox" stroke="none" fill="none" x="6539" y="9692" width="2019" height="353"/>
        <path fill="none" stroke="rgb(0,0,0)" stroke-width="35" stroke-linejoin="round" d="M 6557,9868 L 8052,9868"/>
        <path fill="rgb(0,0,0)" stroke="none" d="M 8557,9868 L 8029,9692 8029,10044 8557,9868 Z"/>
       </g>
      </g>
      <g class="com.sun.star.drawing.LineShape">
       <g id="id47">
        <rect class="BoundingBox" stroke="none" fill="none" x="14213" y="9699" width="1019" height="353"/>
        <path fill="none" stroke="rgb(0,0,0)" stroke-width="35" stroke-linejoin="round" d="M 14231,9875 L 14726,9875"/>
        <path fill="rgb(0,0,0)" stroke="none" d="M 15231,9875 L 14703,9699 14703,10051 15231,9875 Z"/>
       </g>
      </g>
      <g class="com.sun.star.drawing.LineShape">
       <g id="id48">
        <rect class="BoundingBox" stroke="none" fill="none" x="11419" y="9699" width="1893" height="353"/>
        <path fill="none" stroke="rgb(0,0,0)" stroke-width="35" stroke-linejoin="round" d="M 11437,9875 L 12806,9875"/>
        <path fill="rgb(0,0,0)" stroke="none" d="M 13311,9875 L 12783,9699 12783,10051 13311,9875 Z"/>
       </g>
      </g>
      <g class="com.sun.star.drawing.LineShape">
       <g id="id49">
        <rect class="BoundingBox" stroke="none" fill="none" x="9455" y="9699" width="1019" height="353"/>
        <path fill="none" stroke="rgb(0,0,0)" stroke-width="35" stroke-linejoin="round" d="M 9473,9875 L 9968,9875"/>
        <path fill="rgb(0,0,0)" stroke="none" d="M 10473,9875 L 9945,9699 9945,10051 10473,9875 Z"/>
       </g>
      </g>
      <g class="com.sun.star.drawing.LineShape">
       <g id="id50">
        <rect class="BoundingBox" stroke="none" fill="none" x="3288" y="9723" width="2327" height="354"/>
        <path fill="none" stroke="rgb(0,0,0)" stroke-width="35" stroke-linejoin="round" d="M 3306,9902 L 5109,9900"/>
        <path fill="rgb(0,0,0)" stroke="none" d="M 5614,9899 L 5086,9724 5086,10076 5614,9899 Z"/>
       </g>
      </g>
      <g class="com.sun.star.drawing.LineShape">
       <g id="id51">
        <rect class="BoundingBox" stroke="none" fill="none" x="3298" y="8321" width="39" height="1604"/>
        <path fill="none" stroke="rgb(0,0,0)" stroke-width="35" stroke-linejoin="round" d="M 3316,8339 L 3318,9906"/>
       </g>
      </g>
      <g class="com.sun.star.drawing.TextShape">
       <g id="id52">
        <rect class="BoundingBox" stroke="none" fill="none" x="10343" y="9446" width="1202" height="688"/>
        <text class="TextShape"><tspan class="TextParagraph" font-family="Liberation Mono, monospace" font-size="388px" font-weight="400"><tspan class="TextPosition" x="10593" y="9893"><tspan fill="rgb(0,0,0)" stroke="none">...</tspan></tspan></tspan></text>
       </g>
      </g>
     </g>
    </g>
   </g>
  </g>
 </g>
</svg>